ds,yhat,yhat_lower,yhat_upper
2015-01-01,24999199.999991957,24999199.986779395,24999200.012549065
2016-01-01,25518979.99997698,25518979.98731545,25518980.013988376
2017-01-01,25561891.000100464,25561890.98710061,25561891.013962142
2018-01-01,20796348.00002549,20796347.989147924,20796348.01016895
2019-01-01,15216068.999995278,15216068.991803547,15216069.007819032
2019-12-31,23934374.424205005,22781730.945796102,24971968.6209664
2020-12-31,9776168.190816978,8202357.547723196,11614717.649663392
